<?xml version="1.0" encoding="UTF-8"?>
<svg width="96" height="96" version="1.1" xmlns="http://www.w3.org/2000/svg">
 <rect x="0" y="0" width="48" height="48" style="fill-rule:evenodd;fill:#211010"/>
 <rect x="0" y="48" width="48" height="48" style="fill-rule:evenodd;fill:#4a3839"/>
 <rect x="48" y="0" width="48" height="48" style="fill-rule:evenodd;fill:#4a3839"/>
 <rect x="48" y="48" width="48" height="48" style="fill-rule:evenodd;fill:#211010"/>
</svg>
